…
``` r
group_chan <- shared %>%
  group_by(channelTitle) %>%
  summarize(count = n()) %>%
  arrange(desc(count))


group_chan %>%
  left_join(shared, by=c("channelTitle"="channelTitle")) %>%
  filter(category=="Music") %>%
  select(channelTitle, count, top200youtuber) %>%
  distinct()
```

    ## # A tibble: 50 × 3
    ##    channelTitle      count top200youtuber
    ##    <chr>             <int> <lgl>         
    ##  1 Dude Perfect         40 TRUE          
    ##  2 BLACKPINK            32 TRUE          
    ##  3 BANGTANTV            26 TRUE          
    ##  4 HYBE LABELS          26 FALSE         
    ##  5 JYP Entertainment    23 FALSE         
    ##  6 SMTOWN               20 TRUE          
    ##  7 TaylorSwiftVEVO      19 TRUE          
    ##  8 Big Hit Labels       12 FALSE         
    ##  9 BillieEilishVEVO     10 FALSE         
    ## 10 JustinBieberVEVO     10 TRUE          
    ## # … with 40 more rows
…
``` r
group_chan <- shared %>%
  group_by(channelTitle) %>%
  summarize(count = n()) %>%
  arrange(desc(count))


group_chan %>%
  left_join(shared, by=c("channelTitle"="channelTitle")) %>%
  filter(category=="Entertainment") %>%
  select(channelTitle, count, top200youtuber) %>%
  distinct()
```

    ## # A tibble: 43 × 3
    ##    channelTitle                count top200youtuber
    ##    <chr>                       <int> <lgl>         
    ##  1 MrBeast                        41 TRUE          
    ##  2 Marvel Entertainment           36 FALSE         
    ##  3 ZHC                            30 TRUE          
    ##  4 Warner Bros. Pictures          17 FALSE         
    ##  5 HBO Max                        14 FALSE         
    ##  6 Netflix                        14 TRUE          
    ##  7 Sony Pictures Entertainment     8 FALSE         
    ##  8 Logan Paul                      6 FALSE         
    ##  9 Justin Bieber                   5 TRUE          
    ## 10 OverSimplified                  5 FALSE         
    ## # … with 33 more rows
…
``` r
group_chan <- shared %>%
  group_by(channelTitle) %>%
  summarize(count = n()) %>%
  arrange(desc(count))


group_chan %>%
  left_join(shared, by=c("channelTitle"="channelTitle")) %>%
  filter(category=="Entertainment") %>%
  select(channelTitle, count, top200youtuber) %>%
  distinct()
```

    ## # A tibble: 43 × 3
    ##    channelTitle                count top200youtuber
    ##    <chr>                       <int> <lgl>         
    ##  1 MrBeast                        41 TRUE          
    ##  2 Marvel Entertainment           36 FALSE         
    ##  3 ZHC                            30 TRUE          
    ##  4 Warner Bros. Pictures          17 FALSE         
    ##  5 HBO Max                        14 FALSE         
    ##  6 Netflix                        14 TRUE          
    ##  7 Sony Pictures Entertainment     8 FALSE         
    ##  8 Logan Paul                      6 FALSE         
    ##  9 Justin Bieber                   5 TRUE          
    ## 10 OverSimplified                  5 FALSE         
    ## # … with 33 more rows
…
